Survey-Data-Analysis
…
# Model 1 appendix table (teleworkable only)
table_m1 <- make_or_table(m1_tidy, all_labels)

# Model 1S appendix table (full sample)
all_labels_s <- c(
  "teleworkableTeleworkable" = "Teleworkable (Dingel-Neiman)",
  all_labels
)
table_m1s <- make_or_table(m1_tidy, all_labels_s)

table_m1s

## # A tibble: 27 × 7
##    term_label        Hybrid_or_cell Remote_or_cell Hybrid_se_cell Remote_se_cell
##    <chr>             <chr>          <chr>          <chr>          <chr>         
##  1 Teleworkable (Di… 3.11***        3.40***        0.12           0.11          
##  2 Professional/Fin… 2.42***        3.08***        0.18           0.19          
##  3 Health Care       1.14           1.49†          0.24           0.23          
##  4 Education         0.57**         0.41*          0.18           0.35          
##  5 Government        2.50***        1.25           0.20           0.32          
##  6 Construction/Mfg… 1.45           1.50†          0.24           0.21          
##  7 Other Industries  1.62*          1.40           0.20           0.43          
##  8 Income: <$50k     0.64*          0.82           0.20           0.21          
##  9 Income: $100-150k 0.98           1.10           0.23           0.13          
## 10 Income: >$150k    1.12           1.21           0.30           0.15          
## # ℹ 17 more rows
## # ℹ 2 more variables: Hybrid_ci_cell <chr>, Remote_ci_cell <chr>
…
